Review :1- Cricket Performance Analytics
…
## `summarise()` regrouping output by 'match_id', 'season' (override with `.groups` argument)

csk_mi_season_avg_score = csk_mi_season_score %>%
  group_by(season,batting_team) %>%
  summarise(avg_score = mean(score))

## `summarise()` regrouping output by 'season' (override with `.groups` argument)

csk_mi_season_avg_score

## # A tibble: 22 x 3
## # Groups:   season [12]
##    season batting_team avg_score
##     <int> <chr>            <dbl>
##  1   2008 CSK               158.
##  2   2008 MI                149.
##  3   2009 CSK               159.
##  4   2009 MI                146.
##  5   2010 CSK               162.
##  6   2010 MI                171.
##  7   2011 CSK               160 
##  8   2011 MI                143 
##  9   2012 CSK               157.
## 10   2012 MI                145.
## # ... with 12 more rows
…
## `summarise()` regrouping output by 'match_id', 'season' (override with `.groups` argument)

csk_mi_season_avg_wickets = csk_mi_season_wickets %>%
  group_by(season,bowling_team) %>%
  summarise(avg_wickets= mean(wickets))

## `summarise()` regrouping output by 'season' (override with `.groups` argument)

csk_mi_season_avg_wickets

## # A tibble: 22 x 3
## # Groups:   season [12]
##    season bowling_team avg_wickets
##     <int> <chr>              <dbl>
##  1   2008 CSK                 5.81
##  2   2008 MI                  6.71
##  3   2009 CSK                 6.5 
##  4   2009 MI                  6.23
##  5   2010 CSK                 6.38
##  6   2010 MI                  6.31
##  7   2011 CSK                 5.69
##  8   2011 MI                  6.44
##  9   2012 CSK                 6   
## 10   2012 MI                  6.24
## # ... with 12 more rows
…
# Batsmen score contribution in won matches
# Top scorer for winning sides
batsman_contr_w <- del_ds %>%
full_join(won_matches, by = "match_id") %>%
filter(role == "batsman" & bat_team == team) %>%
group_by(match_id, player) %>%
summarize(batsman_score = sum(runs)) %>%
top_n(1, batsman_score) %>%
full_join(won_matches, by = "match_id")

## `summarise()` regrouping output by 'match_id' (override with `.groups` argument)

batsman_contr_w

## # A tibble: 767 x 4
## # Groups:   match_id [752]
##    match_id player       batsman_score team 
##       <int> <chr>                <int> <chr>
##  1        1 Yuvraj Singh            62 SRH  
##  2        2 SPD Smith               84 RPS  
##  3        3 CA Lynn                 93 KKR  
##  4        4 GJ Maxwell              44 KXIP 
##  5        5 KM Jadhav               69 RCB  
##  6        6 DA Warner               76 SRH  
##  7        7 N Rana                  50 MI   
##  8        8 HM Amla                 58 KXIP 
##  9        9 SV Samson              102 DC   
## 10       10 N Rana                  45 MI   
## # ... with 757 more rows
…
## `summarise()` regrouping output by 'match_id' (override with `.groups` argument)

bowler_contr_w

## # A tibble: 1,246 x 4
## # Groups:   match_id [752]
##    match_id player         bowler_wckts team 
##       <int> <chr>                 <int> <chr>
##  1        1 A Nehra                   2 SRH  
##  2        1 B Kumar                   2 SRH  
##  3        1 Rashid Khan               2 SRH  
##  4        2 Imran Tahir               3 RPS  
##  5        3 Kuldeep Yadav             2 KKR  
##  6        4 Sandeep Sharma            2 KXIP 
##  7        5 B Stanlake                2 RCB  
##  8        5 Iqbal Abdulla             2 RCB  
##  9        5 P Negi                    2 RCB  
## 10        6 Rashid Khan               3 SRH  
## # ... with 1,236 more rows

# Top_batsmen on winning sides in the order of highest individual scores
winning_t_scores <- del_ds %>%
full_join(won_matches, by = "match_id") %>%
filter(role == "batsman" & bat_team == team) %>%
group_by(match_id) %>%
summarize(team_score = sum(total_runs)) %>%
full_join(batsman_contr_w, by = "match_id") %>%
arrange(desc(batsman_score))

## `summarise()` ungrouping output (override with `.groups` argument)

winning_t_scores

## # A tibble: 767 x 5
##    match_id team_score player         batsman_score team 
##       <int>      <int> <chr>                  <int> <chr>
##  1      411        263 CH Gayle                 175 RCB  
##  2       60        222 BB McCullum              158 KKR  
##  3      562        235 AB de Villiers           133 RCB  
##  4      620        248 AB de Villiers           129 RCB  
##  5      372        215 CH Gayle                 128 RCB  
##  6      206        246 M Vijay                  127 CSK  
##  7       36        209 DA Warner                126 SRH  
##  8      516        226 V Sehwag                 122 KXIP 
##  9     7953        187 SR Watson                121 CSK  
## 10      243        193 PC Valthaty              120 KXIP 
## # ... with 757 more rows

# Top_batsmen on winning sides in terms no.of top_scores
win_scores <- winning_t_scores %>%
group_by(player) %>%
summarize(batsman_count = n()) %>%
arrange(desc(batsman_count))

## `summarise()` ungrouping output (override with `.groups` argument)

win_scores

## # A tibble: 143 x 2
##    player         batsman_count
##    <chr>                  <int>
##  1 DA Warner                 28
##  2 G Gambhir                 27
##  3 RG Sharma                 26
##  4 CH Gayle                  25
##  5 SK Raina                  21
##  6 AB de Villiers            20
##  7 AM Rahane                 20
##  8 AT Rayudu                 18
##  9 SR Watson                 18
## 10 V Sehwag                  18
## # ... with 133 more rows

# Top_bowlers on winning sides in terms no.of maximum wickets
win_wickets <- bowler_contr_w %>%
group_by(player) %>%
summarize(bowler_count = n()) %>%
arrange(desc(bowler_count))

## `summarise()` ungrouping output (override with `.groups` argument)

win_wickets

## # A tibble: 238 x 2
##    player          bowler_count
##    <chr>                  <int>
##  1 SL Malinga                30
##  2 Harbhajan Singh           27
##  3 A Mishra                  26
##  4 DJ Bravo                  25
##  5 R Vinay Kumar             22
##  6 UT Yadav                  22
##  7 PP Chawla                 20
##  8 B Kumar                   19
##  9 SP Narine                 19
## 10 R Ashwin                  18
## # ... with 228 more rows
…
## `summarise()` regrouping output by 'match_id' (override with `.groups` argument)

batsman_contr_l

## # A tibble: 779 x 5
## # Groups:   match_id [756]
##    match_id player         batsman_score losing_team winner
##       <int> <chr>                  <int> <chr>       <chr> 
##  1        1 CH Gayle                  32 RCB         SRH   
##  2        2 JC Buttler                38 MI          RPS   
##  3        3 SK Raina                  68 GL          KKR   
##  4        4 BA Stokes                 50 RPS         KXIP  
##  5        5 RR Pant                   57 DC          RCB   
##  6        6 DR Smith                  37 GL          SRH   
##  7        7 MK Pandey                 81 KKR         MI    
##  8        8 AB de Villiers            89 RCB         KXIP  
##  9        9 MA Agarwal                20 RPS         DC    
## 10       10 DA Warner                 49 SRH         MI    
## # ... with 769 more rows
…
## `summarise()` regrouping output by 'match_id' (override with `.groups` argument)

bowler_contr_l

## # A tibble: 1,240 x 5
## # Groups:   match_id [756]
##    match_id player         bowler_wckts losing_team winner
##       <int> <chr>                 <int> <chr>       <chr> 
##  1        1 A Choudhary               1 RCB         SRH   
##  2        1 STR Binny                 1 RCB         SRH   
##  3        1 TS Mills                  1 RCB         SRH   
##  4        1 YS Chahal                 1 RCB         SRH   
##  5        2 HH Pandya                 1 MI          RPS   
##  6        2 MJ McClenaghan            1 MI          RPS   
##  7        2 TG Southee                1 MI          RPS   
##  8        4 Imran Tahir               2 RPS         KXIP  
##  9        5 CH Morris                 3 DC          RCB   
## 10        6 P Kumar                   1 GL          SRH   
## # ... with 1,230 more rows

# Top_batsmen on losing sides in the order of highest individual scores
losing_t_scores <- del_ds %>%
full_join(lost_matches, by = "match_id") %>%
filter(role == "batsman" & bat_team == team) %>%
group_by(match_id) %>%
summarize(team_score = sum(total_runs)) %>%
full_join(batsman_contr_l, by = "match_id") %>%
arrange(desc(batsman_score))

## `summarise()` ungrouping output (override with `.groups` argument)

losing_t_scores

## # A tibble: 779 x 6
##    match_id team_score player    batsman_score losing_team winner
##       <int>      <int> <chr>             <int> <chr>       <chr> 
##  1     7935        190 RR Pant             130 DC          SRH   
##  2       68        214 A Symonds           117 SRH         RR    
##  3      517        199 WP Saha             115 KXIP        KKR   
##  4    11331        196 AM Rahane           108 RR          DC    
##  5    11144        203 SV Samson           106 RR          SRH   
##  6    11319        180 CH Gayle            105 KXIP        RCB   
##  7       22        198 HM Amla             104 KXIP        MI    
##  8       46        189 HM Amla             104 KXIP        GL    
##  9    11315        204 KL Rahul            104 KXIP        MI    
## 10      410        185 SR Watson           101 RR          CSK   
## # ... with 769 more rows

# Top_batsmen on losing sides in terms no.of top_scores
loss_scores <- losing_t_scores %>%
group_by(player) %>%
summarize(batsman_count = n()) %>%
arrange(desc(batsman_count))

## `summarise()` ungrouping output (override with `.groups` argument)

loss_scores

## # A tibble: 166 x 2
##    player         batsman_count
##    <chr>                  <int>
##  1 RV Uthappa                22
##  2 V Kohli                   22
##  3 DA Warner                 21
##  4 S Dhawan                  20
##  5 CH Gayle                  18
##  6 RG Sharma                 18
##  7 SK Raina                  17
##  8 Yuvraj Singh              17
##  9 AB de Villiers            15
## 10 JP Duminy                 15
## # ... with 156 more rows

# Top_bowlers on losing sides in terms no.of maximum wickets
loss_wickets <- bowler_contr_l %>%
group_by(player) %>%
summarize(bowler_count = n()) %>%
arrange(desc(bowler_count))

## `summarise()` ungrouping output (override with `.groups` argument)

loss_wickets

## # A tibble: 263 x 2
##    player          bowler_count
##    <chr>                  <int>
##  1 B Kumar                   27
##  2 YS Chahal                 23
##  3 A Mishra                  22
##  4 PP Chawla                 22
##  5 DJ Bravo                  21
##  6 DW Steyn                  19
##  7 Harbhajan Singh           19
##  8 R Ashwin                  19
##  9 AB Dinda                  18
## 10 IK Pathan                 18
## # ... with 253 more rows

Inference: We have found the top batsman and bowlers who top scored and took the most wickets for their teams the most times in losing causes across 12 seasons of the IPL.

# Top batsmen contribution in won matches & lost matches - arranged by contribution in WON matches
top_contri_batsmen <- win_scores %>%
rename(contribution_in_WON_matches = batsman_count) %>%
full_join(loss_scores, by = "player") %>%
rename(contribution_in_LOST_matches = batsman_count) %>%
arrange(desc(contribution_in_WON_matches))
top_contri_batsmen

## # A tibble: 195 x 3
##    player         contribution_in_WON_matches contribution_in_LOST_matches
##    <chr>                                <int>                        <int>
##  1 DA Warner                               28                           21
##  2 G Gambhir                               27                           13
##  3 RG Sharma                               26                           18
##  4 CH Gayle                                25                           18
##  5 SK Raina                                21                           17
##  6 AB de Villiers                          20                           15
##  7 AM Rahane                               20                           10
##  8 AT Rayudu                               18                            9
##  9 SR Watson                               18                            6
## 10 V Sehwag                                18                            8
## # ... with 185 more rows

# Top batsmen contribution in won matches & lost matches - arranged by contribution in LOST matches
top_contri_batsmen <- win_scores %>%
rename(contribution_in_WON_matches = batsman_count) %>%
full_join(loss_scores, by = "player") %>%
rename(contribution_in_LOST_matches = batsman_count) %>%
arrange(desc(contribution_in_LOST_matches))
top_contri_batsmen

## # A tibble: 195 x 3
##    player         contribution_in_WON_matches contribution_in_LOST_matches
##    <chr>                                <int>                        <int>
##  1 V Kohli                                 17                           22
##  2 RV Uthappa                              14                           22
##  3 DA Warner                               28                           21
##  4 S Dhawan                                17                           20
##  5 RG Sharma                               26                           18
##  6 CH Gayle                                25                           18
##  7 SK Raina                                21                           17
##  8 Yuvraj Singh                             6                           17
##  9 AB de Villiers                          20                           15
## 10 JP Duminy                                2                           15
## # ... with 185 more rows

# Top batsmen overall contribution in won matches & lost matches
top_contri_batsmen <- top_contri_batsmen %>%
mutate(batsman_contribution = contribution_in_LOST_matches +
contribution_in_WON_matches) %>%
select(
player,
batsman_contribution,
contribution_in_LOST_matches,
contribution_in_WON_matches
) %>%
arrange(desc(batsman_contribution))
top_contri_batsmen

## # A tibble: 195 x 4
##    player      batsman_contributi~ contribution_in_LOST_~ contribution_in_WON_m~
##    <chr>                     <int>                  <int>                  <int>
##  1 DA Warner                    49                     21                     28
##  2 RG Sharma                    44                     18                     26
##  3 CH Gayle                     43                     18                     25
##  4 G Gambhir                    40                     13                     27
##  5 V Kohli                      39                     22                     17
##  6 SK Raina                     38                     17                     21
##  7 S Dhawan                     37                     20                     17
##  8 RV Uthappa                   36                     22                     14
##  9 AB de Vill~                  35                     15                     20
## 10 AM Rahane                    30                     10                     20
## # ... with 185 more rows

# Top bowlers contribution in won matches and lost matches - arranged by contribution in WON matches
top_contri_bowlers <- win_wickets %>%
rename(contribution_in_WON_matches = bowler_count) %>%
full_join(loss_wickets, by = "player") %>%
rename(contribution_in_LOST_matches = bowler_count) %>%
arrange(desc(contribution_in_WON_matches))
top_contri_bowlers

## # A tibble: 302 x 3
##    player          contribution_in_WON_matches contribution_in_LOST_matches
##    <chr>                                 <int>                        <int>
##  1 SL Malinga                               30                           18
##  2 Harbhajan Singh                          27                           19
##  3 A Mishra                                 26                           22
##  4 DJ Bravo                                 25                           21
##  5 R Vinay Kumar                            22                           18
##  6 UT Yadav                                 22                           13
##  7 PP Chawla                                20                           22
##  8 B Kumar                                  19                           27
##  9 SP Narine                                19                           18
## 10 R Ashwin                                 18                           19
## # ... with 292 more rows

# Top bowlers contribution in won matches and lost matches - arranged by contribution in LOST matches
top_contri_bowlers <- win_wickets %>%
rename(contribution_in_WON_matches = bowler_count) %>%
full_join(loss_wickets, by = "player") %>%
rename(contribution_in_LOST_matches = bowler_count) %>%
arrange(desc(contribution_in_LOST_matches))
top_contri_bowlers

## # A tibble: 302 x 3
##    player          contribution_in_WON_matches contribution_in_LOST_matches
##    <chr>                                 <int>                        <int>
##  1 B Kumar                                  19                           27
##  2 YS Chahal                                14                           23
##  3 A Mishra                                 26                           22
##  4 PP Chawla                                20                           22
##  5 DJ Bravo                                 25                           21
##  6 Harbhajan Singh                          27                           19
##  7 R Ashwin                                 18                           19
##  8 DW Steyn                                 16                           19
##  9 SL Malinga                               30                           18
## 10 R Vinay Kumar                            22                           18
## # ... with 292 more rows

# Top bowlers overall contribution in won matches and lost matches
top_contri_bowlers <- top_contri_bowlers %>%
mutate(bowler_contribution = contribution_in_LOST_matches +
contribution_in_WON_matches) %>%
select(
player,
bowler_contribution,
contribution_in_LOST_matches,
contribution_in_WON_matches
) %>%
arrange(desc(bowler_contribution))
top_contri_bowlers

## # A tibble: 302 x 4
##    player       bowler_contributi~ contribution_in_LOST_~ contribution_in_WON_m~
##    <chr>                     <int>                  <int>                  <int>
##  1 A Mishra                     48                     22                     26
##  2 SL Malinga                   48                     18                     30
##  3 B Kumar                      46                     27                     19
##  4 DJ Bravo                     46                     21                     25
##  5 Harbhajan S~                 46                     19                     27
##  6 PP Chawla                    42                     22                     20
##  7 R Vinay Kum~                 40                     18                     22
##  8 YS Chahal                    37                     23                     14
##  9 R Ashwin                     37                     19                     18
## 10 SP Narine                    37                     18                     19
## # ... with 292 more rows
…
